<?xml version="1.0" encoding="UTF-8"?>
<!DOCTYPE svg PUBLIC "-//W3C//DTD SVG 1.1//EN" "http://www.w3.org/Graphics/SVG/1.1/DTD/svg11.dtd">
<svg version="1.1" id="Layer_1" xmlns="http://www.w3.org/2000/svg" xmlns:xlink="http://www.w3.org/1999/xlink" x="0px" y="0px" width="32px" height="32px" viewBox="0 0 32 32" enable-background="new 0 0 32 32" xml:space="preserve">
  <g id="icon">
    <path d="M15.5,1C7.4919,1,1,7.4919,1,15.5c0,8.0081,6.4919,14.5,14.5,14.5s14.5,-6.4919,14.5,-14.5C30,7.4919,23.5081,1,15.5,1zM17,24.7233c0,0.1528,-0.1239,0.2767,-0.2767,0.2767h-2.4467c-0.1528,0,-0.2767,-0.1239,-0.2767,-0.2767v-2.4467c0,-0.1528,0.1239,-0.2767,0.2767,-0.2767h2.4467c0.1528,0,0.2767,0.1239,0.2767,0.2767V24.7233zM18.5586,15.815l-0.0678,0.0607l-0.0092,0.0094c-0.9335,0.9531,-1.2542,1.662,-1.469,2.4968l-0.0126,0.049V19.6c0,0.2903,-0.228,0.4,-0.4193,0.4h-2.0756c-0.0206,0,-0.5051,-0.0527,-0.5051,-0.4v-1.3061c0,-1.508,1.0093,-2.5064,1.9853,-3.472l0.1266,-0.1254c0.0629,-0.0624,0.1202,-0.1243,0.177,-0.1858c0.0419,-0.0454,0.0835,-0.0905,0.1277,-0.1354l0.0139,-0.0141c0.9003,-0.9136,1.6695,-1.7763,1.6695,-2.9439C18.1,9.9031,17.0297,8.9,15.3813,8.9c-0.8914,0,-1.7932,0.2882,-2.838,0.9l-0.0188,0.0117l-1.036,0.6865c-0.0843,0.0559,-0.1826,0.0854,-0.2841,0.0854c-0.175,0,-0.3368,-0.0864,-0.4327,-0.2312l-0.8344,-1.4949c-0.1174,-0.1773,-0.1266,-0.5583,0.018,-0.6576c0.0355,-0.0254,0.1597,-0.1069,0.4987,-0.3278l0.0189,-0.0124c0.1083,-0.0706,0.195,-0.1271,0.2117,-0.1385C12.2487,6.6608,13.9788,6.1,15.6871,6.1C18.7604,6.1,21.1,8.1756,21.1,11.0353C21.1,13.1832,19.7549,14.594,18.5586,15.815z" fill-rule="evenodd" fill="#3E79B4"/>
    <path d="M17,24.7233c0,0.1528,-0.1239,0.2767,-0.2767,0.2767h-2.4467c-0.1528,0,-0.2767,-0.1239,-0.2767,-0.2767v-2.4467c0,-0.1528,0.1239,-0.2767,0.2767,-0.2767h2.4467c0.1528,0,0.2767,0.1239,0.2767,0.2767V24.7233zM14.5051,20c-0.0206,0,-0.5051,-0.0527,-0.5051,-0.4v-1.3061c0,-1.508,1.0093,-2.5064,1.9853,-3.472l0.1266,-0.1254c0.0629,-0.0624,0.1202,-0.1243,0.177,-0.1858c0.0419,-0.0454,0.0835,-0.0905,0.1277,-0.1354l0.0139,-0.0141c0.9003,-0.9136,1.6695,-1.7763,1.6695,-2.9439C18.1,9.9031,17.0297,8.9,15.3813,8.9c-0.8914,0,-1.7932,0.2882,-2.838,0.9l-0.0188,0.0117l-1.036,0.6865c-0.0843,0.0559,-0.1826,0.0854,-0.2841,0.0854c-0.175,0,-0.3368,-0.0864,-0.4327,-0.2312l-0.8344,-1.4949c-0.1174,-0.1773,-0.1266,-0.5583,0.018,-0.6576c0.0355,-0.0254,0.1597,-0.1069,0.4987,-0.3278l0.0189,-0.0124c0.1083,-0.0706,0.195,-0.1271,0.2117,-0.1385C12.2487,6.6608,13.9788,6.1,15.6871,6.1C18.7604,6.1,21.1,8.1756,21.1,11.0353c0,2.1479,-1.3451,3.5587,-2.5414,4.7797l-0.0678,0.0607l-0.0092,0.0094c-0.9335,0.9531,-1.2542,1.662,-1.469,2.4968l-0.0126,0.049V19.6c0,0.2903,-0.228,0.4,-0.4193,0.4H14.5051z" fill="#FFFFFF"/>
  </g>
</svg>
