<?xml version="1.0" encoding="UTF-8"?>
<!DOCTYPE svg PUBLIC "-//W3C//DTD SVG 1.1//EN" "http://www.w3.org/Graphics/SVG/1.1/DTD/svg11.dtd">
<svg version="1.1" id="Layer_1" xmlns="http://www.w3.org/2000/svg" xmlns:xlink="http://www.w3.org/1999/xlink" x="0px" y="0px" width="32px" height="32px" viewBox="0 0 32 32" enable-background="new 0 0 32 32" xml:space="preserve">
  <g id="main">
    <clipPath id="clip_mask">
      <path d="M20.9262,32C18.5189,30.6,16.9,27.9878,16.9,25c0,-4.4735,3.6265,-8.1,8.1,-8.1c2.9878,0,5.6,1.6189,7,4.0262V0L0,0l0,32H20.9262z" fill-rule="evenodd"/>
    </clipPath>
    <g id="icon" clip-path="url(#clip_mask)">
      <g id="transformed_icon" transform="translate(-1 -1)">
        <path d="M2.7,11h27v2H2.6L2.7,11z" fill-rule="evenodd" fill="#4DA07D"/>
        <path d="M2.6,19h27.1v2H3L2.6,19z" fill-rule="evenodd" fill="#4DA07D"/>
        <path d="M19.4033,2.4964h-2.2942c0,0,2.6909,7.053,2.6909,13.3679c0,6.128,-2.6909,13.4862,-2.6909,13.4862h2.2942c0,0,2.6909,-7.2847,2.6909,-13.3741C22.0942,9.6256,19.4033,2.4964,19.4033,2.4964z" fill-rule="evenodd" fill="#4DA07D"/>
        <path d="M12.765,2.4964h2.1642c0,0,-2.6909,7.053,-2.6909,13.3679c0,6.128,2.6909,13.4862,2.6909,13.4862H12.765c0,0,-2.765,-7.2847,-2.765,-13.3741C10,9.6256,12.765,2.4964,12.765,2.4964z" fill-rule="evenodd" fill="#4DA07D"/>
        <path d="M16.007,30.9366c-8.2396,0,-14.943,-6.7035,-14.943,-14.9433S7.7674,1.05,16.007,1.05S30.95,7.7535,30.95,15.9933S24.2466,30.9366,16.007,30.9366zM16.007,3.5966c-6.8354,0,-12.3964,5.5611,-12.3964,12.3967S9.1716,28.39,16.007,28.39s12.3964,-5.5611,12.3964,-12.3967S22.8424,3.5966,16.007,3.5966z" fill="#4DA07D"/>
      </g>
    </g>
    <g id="overlay">
      <path d="M25,18c-3.866,0,-7,3.134,-7,7c0,3.866,3.134,7,7,7s7,-3.134,7,-7C32,21.134,28.866,18,25,18zM26,29.8c0,0.1105,-0.0895,0.2,-0.2,0.2h-1.6c-0.1105,0,-0.2,-0.0895,-0.2,-0.2v-6.6c0,-0.1105,0.0895,-0.2,0.2,-0.2h1.6c0.1105,0,0.2,0.0895,0.2,0.2V29.8zM26,21.5c0,0.1105,-0.0895,0.2,-0.2,0.2h-1.6c-0.1105,0,-0.2,-0.0895,-0.2,-0.2v-1.3c0,-0.1105,0.0895,-0.2,0.2,-0.2h1.6c0.1105,0,0.2,0.0895,0.2,0.2V21.5z" fill-rule="evenodd" fill="#3E78B3"/>
    </g>
  </g>
</svg>
